<?xml version="1.0" encoding="utf-8"?>
<!-- Generator: Adobe Illustrator 22.1.0, SVG Export Plug-In . SVG Version: 6.00 Build 0)  -->
<svg version="1.1" id="Layer_1" xmlns="http://www.w3.org/2000/svg" xmlns:xlink="http://www.w3.org/1999/xlink" x="0px" y="0px"
	 viewBox="0 0 283.5 283.5" style="enable-background:new 0 0 283.5 283.5;" xml:space="preserve">
<style type="text/css">
	.st0{fill:#F4F7F5;}
	.st1{fill:#010101;}
	.st2{fill:none;stroke:#010101;stroke-width:3;stroke-miterlimit:10;}
	.st3{fill:#010101;stroke:#000000;stroke-miterlimit:10;}
	.st4{fill:none;stroke:#000000;stroke-width:3;stroke-miterlimit:10;}
	.st5{fill:none;stroke:#010101;stroke-width:5;stroke-miterlimit:10;}
	.st6{fill:none;stroke:#010101;stroke-width:4;stroke-miterlimit:10;}
</style>
<rect x="1.1" y="-0.4" class="st0" width="281.1" height="283.5"/>
<g>
	<g>
		<path d="M54.5,199.2h2.8v13.4h6.5v2.3h-9.3V199.2z"/>
		<path d="M66,199.4c0-0.9,0.7-1.6,1.7-1.6c1,0,1.7,0.6,1.7,1.6c0,0.9-0.7,1.6-1.7,1.6C66.7,201,66,200.3,66,199.4z M66.3,203.1H69
			v11.8h-2.8V203.1z"/>
		<path d="M71.1,203.1h2.8l1.9,6.1c0.3,1.2,0.7,2.4,1,3.6h0.1c0.3-1.2,0.7-2.4,1-3.6l1.9-6.1h2.7l-4,11.8h-3.2L71.1,203.1z"/>
		<path d="M84.1,199.4c0-0.9,0.7-1.6,1.7-1.6c1,0,1.7,0.6,1.7,1.6c0,0.9-0.7,1.6-1.7,1.6C84.8,201,84.1,200.3,84.1,199.4z
			 M84.4,203.1h2.8v11.8h-2.8V203.1z"/>
		<path d="M90.7,203.1H93l0.2,1.6h0.1c1.1-1,2.3-1.9,3.9-1.9c2.5,0,3.6,1.7,3.6,4.7v7.4H98v-7c0-1.9-0.6-2.7-1.8-2.7
			c-1,0-1.7,0.5-2.7,1.5v8.2h-2.8V203.1z"/>
		<path d="M103.3,217c0-1,0.6-1.9,1.7-2.5v-0.1c-0.6-0.4-1.1-1-1.1-2c0-0.9,0.6-1.7,1.3-2.2v-0.1c-0.8-0.6-1.6-1.7-1.6-3.1
			c0-2.7,2.2-4.2,4.7-4.2c0.7,0,1.3,0.1,1.7,0.3h4.2v2.1h-2.2c0.4,0.4,0.7,1.2,0.7,2c0,2.6-2,4-4.5,4c-0.5,0-1.1-0.1-1.6-0.3
			c-0.4,0.3-0.6,0.6-0.6,1.1c0,0.7,0.5,1.1,1.9,1.1h2.1c2.8,0,4.3,0.9,4.3,2.9c0,2.3-2.4,4.2-6.3,4.2
			C105.4,220.1,103.3,219.1,103.3,217z M111.9,216.4c0-0.9-0.7-1.2-2.1-1.2h-1.6c-0.6,0-1.1,0-1.6-0.2c-0.6,0.5-0.9,1-0.9,1.6
			c0,1.1,1.2,1.7,3,1.7C110.6,218.3,111.9,217.4,111.9,216.4z M110.4,207c0-1.5-0.9-2.3-2-2.3s-2,0.8-2,2.3c0,1.5,0.9,2.4,2,2.4
			S110.4,208.5,110.4,207z"/>
		<path d="M120.2,203.1h2.8l1.4,6.1c0.2,1.1,0.4,2.2,0.6,3.4h0.1c0.2-1.2,0.5-2.3,0.7-3.4l1.5-6.1h2.5l1.6,6.1
			c0.3,1.1,0.5,2.2,0.8,3.4h0.1c0.2-1.2,0.4-2.3,0.6-3.4l1.4-6.1h2.6l-3,11.8h-3.3l-1.4-5.5c-0.2-1.1-0.5-2.2-0.7-3.4h-0.1
			c-0.2,1.2-0.4,2.3-0.7,3.4l-1.3,5.5h-3.2L120.2,203.1z"/>
		<path d="M139,199.4c0-0.9,0.7-1.6,1.7-1.6s1.7,0.6,1.7,1.6c0,0.9-0.7,1.6-1.7,1.6S139,200.3,139,199.4z M139.4,203.1h2.8v11.8
			h-2.8V203.1z"/>
		<path d="M146,210.9v-5.6h-1.7v-2.1l1.8-0.1l0.3-3.2h2.3v3.2h3v2.2h-3v5.6c0,1.4,0.5,2.1,1.7,2.1c0.4,0,0.9-0.1,1.2-0.3l0.5,2
			c-0.6,0.2-1.5,0.4-2.4,0.4C147.1,215.1,146,213.4,146,210.9z"/>
		<path d="M154.3,197.9h2.8v4.4l-0.1,2.3c1-0.9,2.2-1.8,3.8-1.8c2.5,0,3.6,1.7,3.6,4.7v7.4h-2.8v-7c0-1.9-0.6-2.7-1.8-2.7
			c-1,0-1.7,0.5-2.7,1.5v8.2h-2.8V197.9z"/>
		<path d="M172.7,199.2h2.8v15.7h-2.8V199.2z"/>
		<path d="M178.5,209c0-3.8,2.4-6.2,5-6.2c1.3,0,2.2,0.5,3.1,1.3l-0.1-1.9v-4.3h2.8v17H187l-0.2-1.3h-0.1c-0.9,0.9-2.1,1.6-3.4,1.6
			C180.4,215.1,178.5,212.9,178.5,209z M186.5,211.5V206c-0.8-0.7-1.6-1-2.4-1c-1.5,0-2.7,1.4-2.7,3.9c0,2.6,1,3.9,2.7,3.9
			C185,212.9,185.7,212.4,186.5,211.5z"/>
		<path d="M192,209c0-3.8,2.7-6.2,5.4-6.2c3.2,0,4.9,2.3,4.9,5.6c0,0.5-0.1,1.1-0.1,1.3h-7.5c0.2,2.1,1.6,3.3,3.5,3.3
			c1,0,1.9-0.3,2.7-0.9l0.9,1.7c-1.1,0.8-2.5,1.3-4,1.3C194.6,215.1,192,212.9,192,209z M199.9,207.8c0-1.8-0.8-2.9-2.4-2.9
			c-1.4,0-2.6,1-2.8,2.9H199.9z"/>
		<path d="M204.3,211.7c0-2.5,2.1-3.8,6.9-4.4c0-1.3-0.5-2.3-2.1-2.3c-1.2,0-2.3,0.5-3.3,1.2l-1-1.8c1.3-0.8,3-1.5,4.8-1.5
			c2.9,0,4.4,1.8,4.4,5.1v7h-2.3l-0.2-1.3h-0.1c-1.1,0.9-2.3,1.6-3.7,1.6C205.7,215.1,204.3,213.7,204.3,211.7z M211.3,211.7V209
			c-3.2,0.4-4.3,1.2-4.3,2.4c0,1,0.7,1.5,1.7,1.5C209.7,213,210.4,212.5,211.3,211.7z"/>
		<path d="M216.2,213.5l1.3-1.8c1,0.8,2.1,1.3,3.3,1.3c1.3,0,1.9-0.6,1.9-1.4c0-1-1.3-1.4-2.5-1.9c-1.5-0.6-3.3-1.5-3.3-3.4
			c0-2,1.7-3.5,4.3-3.5c1.6,0,3,0.7,3.9,1.4l-1.3,1.7c-0.8-0.6-1.7-1-2.6-1c-1.2,0-1.7,0.6-1.7,1.3c0,0.9,1.2,1.3,2.5,1.8
			c1.6,0.6,3.4,1.4,3.4,3.6c0,2-1.6,3.7-4.6,3.7C219,215.1,217.3,214.4,216.2,213.5z"/>
	</g>
</g>
<g>
	<g>
		<path class="st1" d="M122.7,92.1c1.2-2.3,3.1-4.1,5.4-5.3c5.1-2.6,10.7-2.5,15.2,0.4c4.5,2.7,7,7.4,7,12.6c0,3.2-1,6.2-2.9,8.8
			c-1.5,2-2.4,4.7-2.4,7.4c0,0.9-0.7,1.7-1.7,1.7c-0.9,0-1.7-0.7-1.7-1.7c0-3.4,1.1-6.8,3.1-9.5c1.5-1.9,2.2-4.4,2.2-6.8
			c0-4-2-7.7-5.5-9.7c-3.5-2.1-7.9-2.2-12-0.2c-1.7,0.8-3.1,2.2-3.9,3.9c-2.2,4.4-2,9.1,0.6,12.8c1.9,2.7,3,5.9,3,9.4
			c0,0.9-0.7,1.7-1.7,1.7l0,0c-0.9,0-1.7-0.7-1.7-1.7c0-2.8-0.8-5.3-2.3-7.4C120.2,103.7,119.8,97.7,122.7,92.1z M125.6,120.5
			c0,0.9,0.7,1.7,1.7,1.7h16c0.9,0,1.7-0.7,1.7-1.7s-0.7-1.7-1.7-1.7h-16C126.3,118.8,125.6,119.6,125.6,120.5z M140.6,126.4
			c0-0.9-0.7-1.7-1.7-1.7h-7.1c-0.9,0-1.7,0.7-1.7,1.7s0.7,1.7,1.7,1.7h7.1C139.8,128,140.6,127.3,140.6,126.4z M133.8,131.9v20.8
			c0,0.9,0.7,1.7,1.7,1.7c0.9,0,1.7-0.7,1.7-1.7v-20.8c0-0.9-0.7-1.7-1.7-1.7C134.6,130.3,133.8,131,133.8,131.9z M137.4,105.2
			l4.1-3.8c0.6-0.6,0.7-1.7,0.1-2.4c-0.6-0.6-1.7-0.7-2.4-0.1l-3.4,3.2l-3.4-3.2c-0.6-0.6-1.8-0.6-2.4,0.1c-0.6,0.6-0.6,1.8,0.1,2.4
			l4.1,3.8v9.8c0,0.1,0,0.1,0,0.2s0,0.1,0,0.2c0,0.5,0.2,0.9,0.5,1.2c0.3,0.3,0.7,0.5,1.2,0.5s0.9-0.2,1.2-0.5
			c0.3-0.3,0.5-0.7,0.5-1.2c0-0.1,0-0.1,0-0.2s0-0.1,0-0.2V105.2z M135.7,82c0.9,0,1.7-0.7,1.7-1.7v-7.2c0-0.9-0.7-1.7-1.7-1.7
			c-0.9,0-1.7,0.7-1.7,1.7v7.2C134.1,81.3,134.8,82,135.7,82z M153.1,99.4c0,0.9,0.7,1.7,1.7,1.7h7.2c0.9,0,1.7-0.7,1.7-1.7
			s-0.7-1.7-1.7-1.7h-7.2C153.8,97.6,153.1,98.4,153.1,99.4z M121.1,87.1c0.4,0.4,0.7,0.5,1.2,0.5c0.5,0,0.8-0.2,1.2-0.5
			c0.6-0.6,0.6-1.8,0-2.4l-5.1-5.1c-0.6-0.6-1.8-0.6-2.4,0c-0.6,0.6-0.6,1.8,0,2.4L121.1,87.1z M149.1,87.6c0.5,0,0.8-0.2,1.2-0.5
			l5.1-5.1c0.6-0.6,0.6-1.8,0-2.4c-0.6-0.6-1.8-0.6-2.4,0l-5.1,5.1c-0.6,0.6-0.6,1.8,0,2.4C148.3,87.4,148.7,87.6,149.1,87.6z
			 M109.2,100.9h7.2c0.9,0,1.7-0.7,1.7-1.7s-0.7-1.7-1.7-1.7h-7.2c-0.9,0-1.7,0.7-1.7,1.7S108.2,100.9,109.2,100.9z M153.9,119.5
			c0.5,0,0.8-0.2,1.2-0.5c0.6-0.6,0.6-1.8,0-2.4l-4.5-4.5c-0.6-0.6-1.8-0.6-2.4,0c-0.6,0.6-0.6,1.8,0,2.4l4.5,4.5
			C153.1,119.3,153.6,119.5,153.9,119.5z M116.8,119.5c0.5,0,0.8-0.2,1.2-0.5l4.5-4.5c0.6-0.6,0.6-1.8,0-2.4c-0.6-0.6-1.8-0.6-2.4,0
			l-4.5,4.5c-0.6,0.6-0.6,1.8,0,2.4C115.9,119.3,116.3,119.5,116.8,119.5z M129.8,151.2c-8.9,0-16.2-7.2-16.2-16.2
			c0-0.9,0.7-1.7,1.7-1.7c8.9,0,16.2,7.2,16.2,16.2C131.4,150.5,130.7,151.2,129.8,151.2z M127.9,147.7c-0.8-5.7-5.3-10.1-10.9-10.9
			C117.9,142.4,122.3,146.9,127.9,147.7z M156,125.2c0.9,0,1.7,0.7,1.7,1.7c0,8.9-7.2,16.2-16.2,16.2c-0.9,0-1.7-0.7-1.7-1.7
			C139.8,132.5,147.1,125.2,156,125.2z M143.4,139.6c5.7-0.8,10.1-5.3,10.9-10.9C148.6,129.5,144.1,134,143.4,139.6z"/>
	</g>
	<polyline class="st6" points="186,83.4 186,170.5 85.2,170.5 85.2,83.4 	"/>
	<polyline class="st6" points="63.6,90.7 133.8,42.2 208.3,90.7 	"/>
</g>
</svg>
