<?xml version="1.0" encoding="utf-8"?>
<!-- Generator: Adobe Illustrator 22.1.0, SVG Export Plug-In . SVG Version: 6.00 Build 0)  -->
<svg version="1.1" id="Layer_1" xmlns="http://www.w3.org/2000/svg" xmlns:xlink="http://www.w3.org/1999/xlink" x="0px" y="0px"
	 viewBox="0 0 1190.6 872.3" style="enable-background:new 0 0 1190.6 872.3;" xml:space="preserve">
<style type="text/css">
	.st0{fill:none;stroke:#606162;stroke-width:4;stroke-miterlimit:10;}
	.st1{fill:none;stroke:#606061;stroke-width:4;stroke-miterlimit:10;}
	.st2{fill:none;stroke:#828080;stroke-width:4;stroke-miterlimit:10;}
	.st3{fill:#D3D3D3;}
	.st4{opacity:0.76;}
	.st5{font-family:'Avenir-Roman';}
	.st6{font-size:17.5614px;}
	.st7{fill:#8AAFCC;}
	.st8{font-size:17.3164px;}
	.st9{fill:#38869B;}
	.st10{fill:#E28546;}
	.st11{font-family:'Avenir-Black';}
	.st12{font-size:10.3423px;}
	.st13{font-size:9.2745px;}
	.st14{font-size:7.2689px;}
	.st15{font-size:8.4519px;}
	.st16{font-size:9.0921px;}
	.st17{font-size:8.1692px;}
</style>
<line class="st0" x1="536.7" y1="102.1" x2="566" y2="135.1"/>
<line class="st0" x1="610.1" y1="78" x2="595.3" y2="118.6"/>
<line class="st0" x1="680" y1="125.7" x2="618.3" y2="144.3"/>
<line class="st0" x1="581.7" y1="182" x2="576.9" y2="241.3"/>
<line class="st0" x1="415.6" y1="117.1" x2="402" y2="282.4"/>
<line class="st0" x1="353.6" y1="213.2" x2="387.1" y2="290.8"/>
<line class="st0" x1="222.5" y1="93.9" x2="368.3" y2="310.9"/>
<line class="st0" x1="246.2" y1="202.4" x2="363.1" y2="328.5"/>
<line class="st0" x1="114.3" y1="174.1" x2="353.6" y2="356.1"/>
<line class="st0" x1="830.7" y1="657.7" x2="764.5" y2="644"/>
<line class="st0" x1="908.9" y1="735.7" x2="743.3" y2="664.3"/>
<line class="st0" x1="816.9" y1="758.3" x2="734.1" y2="678.2"/>
<line class="st0" x1="721" y1="728.4" x2="718.7" y2="680.2"/>
<line class="st0" x1="387.9" y1="810" x2="417.7" y2="794.3"/>
<line class="st0" x1="177.1" y1="808.7" x2="230.6" y2="794.7"/>
<line class="st0" x1="291.3" y1="794.4" x2="322.7" y2="809.1"/>
<line class="st0" x1="187.8" y1="504.8" x2="195.4" y2="580.7"/>
<line class="st0" x1="251.3" y1="385.8" x2="299.5" y2="439.5"/>
<line class="st0" x1="152.6" y1="295.2" x2="203.3" y2="341.7"/>
<line class="st0" x1="222.6" y1="478.6" x2="293.9" y2="482.4"/>
<line class="st0" x1="119.3" y1="408.4" x2="162.3" y2="455.1"/>
<line class="st0" x1="108.2" y1="473.7" x2="156.5" y2="476.3"/>
<line class="st0" x1="167.7" y1="500.7" x2="130" y2="535.1"/>
<line class="st0" x1="422.5" y1="745.5" x2="397.1" y2="675"/>
<line class="st0" x1="279" y1="764.9" x2="374.3" y2="678.4"/>
<line class="st0" x1="228" y1="694.9" x2="366" y2="665.5"/>
<line class="st0" x1="228.2" y1="606.2" x2="370.7" y2="632.3"/>
<line class="st0" x1="893.3" y1="150.4" x2="845.3" y2="161.7"/>
<line class="st0" x1="894" y1="238.4" x2="918.2" y2="181.7"/>
<line class="st0" x1="939.9" y1="129.1" x2="948.4" y2="105.1"/>
<line class="st0" x1="901.5" y1="127.4" x2="870.1" y2="94.6"/>
<line class="st0" x1="960.3" y1="143.9" x2="1040" y2="101.4"/>
<line class="st0" x1="959" y1="162.7" x2="994.8" y2="169.3"/>
<line class="st0" x1="818.8" y1="519" x2="897.7" y2="567.8"/>
<line class="st0" x1="834.4" y1="476.1" x2="908.2" y2="469.6"/>
<line class="st0" x1="964.6" y1="493.9" x2="1026.3" y2="517.6"/>
<line class="st0" x1="954.8" y1="578" x2="1027" y2="552.4"/>
<line class="st0" x1="995" y1="358.6" x2="1056.7" y2="382.3"/>
<line class="st0" x1="1040.7" y1="275.4" x2="1005.2" y2="314.1"/>
<line class="st0" x1="884.9" y1="299.7" x2="946.5" y2="323.4"/>
<circle class="st1" cx="561.4" cy="486.5" r="213.3"/>
<g>
	<circle class="st2" cx="561.4" cy="476.1" r="116"/>
	<circle class="st3" cx="561.4" cy="476.1" r="101.9"/>
	<text transform="matrix(1 0 0 1 484.7851 469.5653)"><tspan x="0" y="0" class="st4 st5 st6">Waste Reduction in</tspan><tspan x="43.6" y="21.1" class="st4 st5 st6"> Fablab</tspan><tspan x="102.2" y="21.1" class="st5 st6">s</tspan></text>
</g>
<g>
	<circle class="st7" cx="344.9" cy="482.5" r="65.4"/>
	<text transform="matrix(1 0 0 1 306.918 486.468)" class="st4 st5 st8">Materials </text>
</g>
<g>
	<circle class="st9" cx="410.3" cy="334.9" r="65.4"/>
	<text transform="matrix(1 0 0 1 364.398 328.4982)"><tspan x="0" y="0" class="st4 st5 st8">Fabrication </tspan><tspan x="5.3" y="20.8" class="st4 st5 st8">Processes </tspan></text>
</g>
<g>
	<circle class="st7" cx="777.9" cy="478.6" r="65.4"/>
	<text transform="matrix(1 0 0 1 733.6126 482.52)" class="st4 st5 st8">Motivation </text>
</g>
<g>
	<circle class="st9" cx="410.3" cy="627.6" r="65.4"/>
	<text transform="matrix(1 0 0 1 375.7917 631.5249)" class="st4 st5 st8">Barriers  </text>
</g>
<g>
	<circle class="st7" cx="561.4" cy="269.6" r="65.4"/>
	<text transform="matrix(1 0 0 1 546.9709 257.8138)"><tspan x="0" y="0" class="st4 st5 st8">My </tspan><tspan x="-34.7" y="20.8" class="st4 st5 st8">intervention </tspan></text>
</g>
<g>
	<circle class="st9" cx="712.5" cy="334.9" r="65.4"/>
	<text transform="matrix(1 0 0 1 679.6649 318.108)"><tspan x="0" y="0" class="st4 st5 st8">Existing </tspan><tspan x="10.4" y="20.8" class="st4 st5 st8">waste</tspan><tspan x="-5.5" y="41.6" class="st4 st5 st8">processes</tspan></text>
</g>
<g>
	<circle class="st9" cx="712.5" cy="627.6" r="65.4"/>
	<text transform="matrix(1 0 0 1 659.5778 631.5248)"><tspan x="0" y="0" class="st4 st5 st8">Ideas around </tspan><tspan x="30.2" y="20.8" class="st4 st5 st8">value </tspan></text>
</g>
<g>
	<circle class="st7" cx="561.4" cy="692.9" r="65.4"/>
	<text transform="matrix(1 0 0 1 529.3173 686.4935)"><tspan x="0" y="0" class="st4 st5 st8">Current </tspan><tspan x="-2.4" y="20.8" class="st4 st5 st8">solutions</tspan></text>
</g>
<g>
	<circle class="st10" cx="978.3" cy="336" r="39"/>
	<text transform="matrix(1 0 0 1 963.5888 338.0782)" class="st4 st11 st12">Wood</text>
</g>
<line class="st0" x1="769.6" y1="303.1" x2="843.2" y2="278.5"/>
<g>
	<circle class="st10" cx="879.2" cy="266.5" r="39"/>
	<text transform="matrix(1 0 0 1 856.6915 251.6922)"><tspan x="0" y="0" class="st4 st11 st13">Research  </tspan><tspan x="2.8" y="11.1" class="st4 st11 st13">Fablab &amp;</tspan><tspan x="-5.8" y="22.3" class="st4 st11 st13">other maker </tspan><tspan x="7.9" y="33.4" class="st4 st11 st13">spaces</tspan></text>
</g>
<g>
	<circle class="st10" cx="1064.9" cy="273.2" r="39"/>
	<text transform="matrix(1 0 0 1 1050.4216 269.3259)"><tspan x="0" y="0" class="st4 st11 st12">Small </tspan><tspan x="-4" y="12.4" class="st4 st11 st12">offcuts </tspan></text>
</g>
<g>
	<circle class="st10" cx="1075.1" cy="398.3" r="39"/>
	<text transform="matrix(1 0 0 1 1054.2815 400.3174)" class="st4 st11 st12">Sawdust</text>
</g>
<g>
	<circle class="st10" cx="936.8" cy="478.6" r="39"/>
	<text transform="matrix(1 0 0 1 918.397 463.7193)"><tspan x="0" y="0" class="st4 st11 st13">Why do </tspan><tspan x="3.2" y="11.1" class="st4 st11 st13">people</tspan><tspan x="3.1" y="22.3" class="st4 st11 st13">re-use/</tspan><tspan x="0.3" y="33.4" class="st4 st11 st13">recycle?</tspan></text>
</g>
<g>
	<circle class="st10" cx="925.6" cy="582.7" r="39"/>
	<text transform="matrix(1 0 0 1 901.2748 567.8453)"><tspan x="0" y="0" class="st4 st11 st13">Why don’t </tspan><tspan x="9.1" y="11.1" class="st4 st11 st13">people</tspan><tspan x="9" y="22.3" class="st4 st11 st13">re-use/</tspan><tspan x="6.3" y="33.4" class="st4 st11 st13">recycle?</tspan></text>
</g>
<g>
	<circle class="st10" cx="1055.5" cy="540.1" r="39"/>
	<text transform="matrix(1 0 0 1 1034.7819 530.8586)"><tspan x="0" y="0" class="st4 st11 st13">Positive /</tspan><tspan x="0.3" y="11.1" class="st4 st11 st13">negative </tspan><tspan x="5.4" y="22.3" class="st4 st11 st13">drivers</tspan></text>
</g>
<g>
	<circle class="st10" cx="925.6" cy="152.5" r="39"/>
	<text transform="matrix(1 0 0 1 912.101 150.4219)"><tspan x="0" y="0" class="st4 st11 st12">Other </tspan><tspan x="-8.4" y="12.4" class="st4 st11 st12">marterials</tspan></text>
</g>
<g>
	<circle class="st10" cx="843.2" cy="78" r="39"/>
	<text transform="matrix(1 0 0 1 825.1493 80.0863)" class="st4 st11 st12">Plastics</text>
</g>
<g>
	<circle class="st10" cx="1064.9" cy="82.1" r="39"/>
	<text transform="matrix(1 0 0 1 1045.9182 84.1917)" class="st4 st11 st12">Textiles</text>
</g>
<g>
	<circle class="st10" cx="816.9" cy="174.1" r="39"/>
	<text transform="matrix(1 0 0 1 784.6674 176.1776)" class="st4 st11 st12">Consumables</text>
</g>
<g>
	<circle class="st10" cx="1025.8" cy="167.2" r="39"/>
	<text transform="matrix(1 0 0 1 1006.5105 169.2927)" class="st4 st11 st12">E-waste</text>
</g>
<g>
	<circle class="st10" cx="962.9" cy="75.1" r="39"/>
	<text transform="matrix(1 0 0 1 946.4249 77.1389)" class="st4 st11 st12">Metals</text>
</g>
<g>
	<circle class="st10" cx="261.5" cy="789.9" r="39"/>
	<text transform="matrix(1 0 0 1 250.9241 791.7171)" class="st4 st11 st13">Time</text>
</g>
<g>
	<circle class="st10" cx="436.6" cy="775.4" r="39"/>
	<text transform="matrix(1 0 0 1 416.6488 777.2199)" class="st4 st11 st13">Economic</text>
</g>
<g>
	<circle class="st10" cx="198" cy="704.6" r="39"/>
	<text transform="matrix(1 0 0 1 172.939 706.3936)" class="st4 st11 st13">Knowledge</text>
</g>
<g>
	<circle class="st10" cx="198" cy="606.2" r="39"/>
	<text transform="matrix(1 0 0 1 181.778 596.9405)"><tspan x="0" y="0" class="st4 st11 st13">Access </tspan><tspan x="-12.3" y="11.1" class="st4 st11 st13">E.g. To New </tspan><tspan x="-4.1" y="22.3" class="st4 st11 st13">Materials</tspan></text>
</g>
<g>
	<circle class="st10" cx="96" cy="385.8" r="39"/>
	<text transform="matrix(1 0 0 1 67.1923 387.8782)" class="st4 st11 st13">Bio Materials</text>
</g>
<g>
	<circle class="st10" cx="230.6" cy="360.1" r="39"/>
	<text transform="matrix(1 0 0 1 199.633 356.0581)"><tspan x="0" y="0" class="st4 st11 st13">Using existing</tspan><tspan x="9.6" y="11.1" class="st4 st11 st13">materials </tspan><tspan x="12" y="22.3" class="st4 st11 st13">e.g MDF</tspan></text>
</g>
<g>
	<circle class="st10" cx="134.3" cy="273.2" r="39"/>
	<text transform="matrix(1 0 0 1 114.7767 269.1735)"><tspan x="0" y="0" class="st4 st11 st13">Uses for </tspan><tspan x="6.5" y="11.1" class="st4 st11 st13">waste</tspan></text>
</g>
<g>
	<circle class="st10" cx="191.6" cy="478.6" r="39"/>
	<text transform="matrix(1 0 0 1 157.7828 474.5722)"><tspan x="0" y="0" class="st4 st11 st13">Encourage new</tspan><tspan x="7.1" y="11.1" class="st4 st11 st13">material use</tspan></text>
</g>
<g>
	<circle class="st10" cx="75.3" cy="469.4" r="39"/>
	<text transform="matrix(1 0 0 1 48.1679 460.0854)"><tspan x="0" y="0" class="st4 st11 st13">Commercial </tspan><tspan x="-7.7" y="11.1" class="st4 st11 st13">materials made </tspan><tspan x="2.2" y="22.3" class="st4 st11 st13">from waste</tspan></text>
</g>
<g>
	<circle class="st10" cx="101.8" cy="550.9" r="39"/>
	<text transform="matrix(1 0 0 1 80.0864 546.866)"><tspan x="0" y="0" class="st4 st11 st13">Materials </tspan><tspan x="3" y="11.1" class="st4 st11 st13">made in </tspan><tspan x="6.5" y="22.3" class="st4 st11 st13">the lab</tspan></text>
</g>
<g>
	<circle class="st10" cx="862.4" cy="665.5" r="39"/>
	<text transform="matrix(1 0 0 1 842.8162 657.6638)"><tspan x="0" y="0" class="st4 st11 st13">What we</tspan><tspan x="4.7" y="11.1" class="st4 st11 st13">see as </tspan><tspan x="6.5" y="22.3" class="st4 st11 st13">waste</tspan></text>
</g>
<g>
	<circle class="st10" cx="830.7" cy="789.9" r="39"/>
	<text transform="matrix(1 0 0 1 806.1591 782.0229)"><tspan x="0" y="0" class="st4 st11 st13">How much </tspan><tspan x="-7.2" y="11.1" class="st4 st11 st13">we value what</tspan><tspan x="4.9" y="22.3" class="st4 st11 st13">we make</tspan></text>
</g>
<g>
	<circle class="st10" cx="725.4" cy="758.3" r="39"/>
	<text transform="matrix(1 0 0 1 704.4789 736.343)"><tspan x="0" y="0" class="st4 st11 st14">Do digitally </tspan><tspan x="1" y="8.7" class="st4 st11 st14">made items</tspan><tspan x="-2.5" y="17.4" class="st4 st11 st14">hold as much </tspan><tspan x="-8.9" y="26.2" class="st4 st11 st14">value for creator </tspan><tspan x="-8.7" y="34.9" class="st4 st11 st14">and user as ones </tspan><tspan x="-7.5" y="43.6" class="st4 st11 st14">made buy hand?</tspan></text>
</g>
<g>
	<circle class="st10" cx="939.3" cy="743.6" r="39"/>
	<text transform="matrix(1 0 0 1 912.7558 735.7351)"><tspan x="0" y="0" class="st4 st11 st13">Diposable / </tspan><tspan x="0.6" y="11.1" class="st4 st11 st13">throw away</tspan><tspan x="11.3" y="22.3" class="st4 st11 st13">culture</tspan></text>
</g>
<g>
	<circle class="st10" cx="353.6" cy="822.4" r="39"/>
	<text transform="matrix(1 0 0 1 325.0646 814.4143)"><tspan x="0" y="0" class="st4 st11 st15">Cost of labour</tspan><tspan x="-8.3" y="10.1" class="st4 st11 st15">is often a lot more</tspan><tspan x="-1" y="20.3" class="st4 st11 st15">than materials </tspan></text>
</g>
<g>
	<circle class="st10" cx="144.5" cy="805.8" r="39"/>
	<text transform="matrix(1 0 0 1 109.9045 802.1191)"><tspan x="0" y="0" class="st4 st11 st16">People are busy</tspan><tspan x="6.2" y="10.9" class="st4 st11 st16">not a priority</tspan></text>
</g>
<g>
	<circle class="st10" cx="222.5" cy="183.3" r="39"/>
	<text transform="matrix(1 0 0 1 212.3198 185.1639)" class="st4 st11 st13">CNC</text>
</g>
<g>
	<circle class="st10" cx="348.1" cy="183.3" r="39"/>
	<text transform="matrix(1 0 0 1 318.6595 185.1639)" class="st4 st11 st13">Laser Cutting</text>
</g>
<g>
	<circle class="st10" cx="204.9" cy="67.8" r="39"/>
	<text transform="matrix(1 0 0 1 179.8798 69.6155)" class="st4 st11 st13">3D printing</text>
</g>
<g>
	<circle class="st10" cx="101.8" cy="144.3" r="39"/>
	<text transform="matrix(1 0 0 1 77.9335 146.1282)" class="st4 st11 st13">Electronics</text>
</g>
<g>
	<circle class="st10" cx="418.4" cy="82.1" r="39"/>
	<text transform="matrix(1 0 0 1 402.6273 78.4152)"><tspan x="0" y="0" class="st4 st11 st13">Digital </tspan><tspan x="-9.9" y="11.1" class="st4 st11 st13">Embroidary</tspan></text>
</g>
<g>
	<circle class="st10" cx="586.3" cy="152.5" r="39"/>
	<text transform="matrix(1 0 0 1 554.2014 154.0961)" class="st4 st11 st17">Different Levels </text>
</g>
<g>
	<circle class="st10" cx="704.7" cy="111" r="39"/>
	<text transform="matrix(1 0 0 1 683.1998 103.5613)"><tspan x="0" y="0" class="st4 st11 st17">Monitoring</tspan><tspan x="7.3" y="9.8" class="st4 st11 st17">Fablab </tspan><tspan x="4.4" y="19.6" class="st4 st11 st17">Systems </tspan></text>
</g>
<g>
	<circle class="st10" cx="618.3" cy="53.2" r="39"/>
	<text transform="matrix(1 0 0 1 590.8732 53.1657)"><tspan x="0" y="0" class="st4 st11 st17">Materials and </tspan><tspan x="8.4" y="9.8" class="st4 st11 st17">Processes</tspan></text>
</g>
<g>
	<circle class="st10" cx="517" cy="82.1" r="39"/>
	<text transform="matrix(1 0 0 1 493.3417 74.7208)"><tspan x="0" y="0" class="st4 st11 st17">FabLab and </tspan><tspan x="3.6" y="9.8" class="st4 st11 st17">Barcelona </tspan><tspan x="1.1" y="19.6" class="st4 st11 st17">Ecosystems</tspan></text>
</g>
</svg>
