<?xml version="1.0" encoding="utf-8"?>
<!-- Generator: Adobe Illustrator 22.1.0, SVG Export Plug-In . SVG Version: 6.00 Build 0)  -->
<svg version="1.1" id="Layer_1" xmlns="http://www.w3.org/2000/svg" xmlns:xlink="http://www.w3.org/1999/xlink" x="0px" y="0px"
	 viewBox="0 0 283.5 283.5" style="enable-background:new 0 0 283.5 283.5;" xml:space="preserve">
<style type="text/css">
	.st0{fill:#F4F7F5;}
	.st1{fill:#010101;}
	.st2{fill:none;stroke:#010101;stroke-width:3;stroke-miterlimit:10;}
	.st3{fill:#010101;stroke:#000000;stroke-miterlimit:10;}
	.st4{fill:none;stroke:#000000;stroke-width:3;stroke-miterlimit:10;}
	.st5{fill:none;stroke:#010101;stroke-width:5;stroke-miterlimit:10;}
	.st6{fill:none;stroke:#010101;stroke-width:4;stroke-miterlimit:10;}
	.st7{font-family:'MyriadPro-Regular';}
	.st8{font-size:50.3969px;}
	.st9{fill:none;stroke:#000000;stroke-width:4;stroke-miterlimit:10;}
</style>
<rect x="0.2" class="st0" width="281.1" height="283.5"/>
<g>
	<g>
		<path d="M64.8,203.5h2.9l4.9,8.8l1.6,3.4h0.1c-0.1-1.6-0.4-3.6-0.4-5.4v-6.8h2.6v15.7h-2.9l-4.9-8.8l-1.6-3.3h-0.1
			c0.1,1.7,0.4,3.6,0.4,5.3v6.9h-2.6V203.5z"/>
		<path d="M79.7,216.1c0-2.5,2.1-3.8,6.9-4.4c0-1.3-0.5-2.3-2.1-2.3c-1.2,0-2.3,0.5-3.3,1.2l-1-1.8c1.3-0.8,3-1.5,4.8-1.5
			c2.9,0,4.4,1.8,4.4,5.1v7h-2.3l-0.2-1.3h-0.1c-1.1,0.9-2.3,1.6-3.7,1.6C81.1,219.5,79.7,218.1,79.7,216.1z M86.6,216.1v-2.7
			c-3.2,0.4-4.3,1.2-4.3,2.4c0,1,0.7,1.5,1.7,1.5C85,217.3,85.7,216.9,86.6,216.1z"/>
		<path d="M91.2,207.4H94l1.9,6.1c0.3,1.2,0.7,2.4,1,3.6H97c0.3-1.2,0.7-2.4,1-3.6l1.9-6.1h2.7l-4,11.8h-3.2L91.2,207.4z"/>
		<path d="M104.3,203.8c0-0.9,0.7-1.6,1.7-1.6c1,0,1.7,0.6,1.7,1.6c0,0.9-0.7,1.6-1.7,1.6C105,205.4,104.3,204.7,104.3,203.8z
			 M104.6,207.4h2.8v11.8h-2.8V207.4z"/>
		<path d="M110.1,221.4c0-1,0.6-1.9,1.7-2.5v-0.1c-0.6-0.4-1.1-1-1.1-2c0-0.9,0.6-1.7,1.3-2.2v-0.1c-0.8-0.6-1.6-1.7-1.6-3.1
			c0-2.7,2.2-4.2,4.7-4.2c0.7,0,1.3,0.1,1.7,0.3h4.2v2.1h-2.2c0.4,0.4,0.7,1.2,0.7,2c0,2.6-2,4-4.5,4c-0.5,0-1.1-0.1-1.6-0.3
			c-0.4,0.3-0.6,0.6-0.6,1.1c0,0.7,0.5,1.1,1.9,1.1h2.1c2.8,0,4.3,0.9,4.3,2.9c0,2.3-2.4,4.2-6.3,4.2
			C112.1,224.4,110.1,223.4,110.1,221.4z M118.6,220.7c0-0.9-0.7-1.2-2.1-1.2h-1.6c-0.6,0-1.1,0-1.6-0.2c-0.6,0.5-0.9,1-0.9,1.6
			c0,1.1,1.2,1.7,3,1.7C117.3,222.6,118.6,221.7,118.6,220.7z M117.1,211.4c0-1.5-0.9-2.3-2-2.3c-1.2,0-2,0.8-2,2.3
			c0,1.5,0.9,2.4,2,2.4C116.2,213.7,117.1,212.9,117.1,211.4z"/>
		<path d="M122.7,216.1c0-2.5,2.1-3.8,6.9-4.4c0-1.3-0.5-2.3-2.1-2.3c-1.2,0-2.3,0.5-3.3,1.2l-1-1.8c1.3-0.8,3-1.5,4.8-1.5
			c2.9,0,4.4,1.8,4.4,5.1v7h-2.3l-0.2-1.3h-0.1c-1.1,0.9-2.3,1.6-3.7,1.6C124.1,219.5,122.7,218.1,122.7,216.1z M129.6,216.1v-2.7
			c-3.2,0.4-4.3,1.2-4.3,2.4c0,1,0.7,1.5,1.7,1.5C128,217.3,128.8,216.9,129.6,216.1z"/>
		<path d="M136.1,215.2v-5.6h-1.7v-2.1l1.8-0.1l0.3-3.2h2.3v3.2h3v2.2h-3v5.6c0,1.4,0.5,2.1,1.7,2.1c0.4,0,0.9-0.1,1.2-0.3l0.5,2
			c-0.6,0.2-1.5,0.4-2.4,0.4C137.1,219.5,136.1,217.8,136.1,215.2z"/>
		<path d="M144.1,203.8c0-0.9,0.7-1.6,1.7-1.6s1.7,0.6,1.7,1.6c0,0.9-0.7,1.6-1.7,1.6S144.1,204.7,144.1,203.8z M144.4,207.4h2.8
			v11.8h-2.8V207.4z"/>
		<path d="M150.7,207.4h2.3l0.2,1.6h0.1c1.1-1,2.3-1.9,3.9-1.9c2.5,0,3.6,1.7,3.6,4.7v7.4h-2.8v-7c0-1.9-0.6-2.7-1.8-2.7
			c-1,0-1.7,0.5-2.7,1.5v8.2h-2.8V207.4z"/>
		<path d="M163.3,221.4c0-1,0.6-1.9,1.7-2.5v-0.1c-0.6-0.4-1.1-1-1.1-2c0-0.9,0.6-1.7,1.3-2.2v-0.1c-0.8-0.6-1.6-1.7-1.6-3.1
			c0-2.7,2.2-4.2,4.7-4.2c0.7,0,1.3,0.1,1.7,0.3h4.2v2.1h-2.2c0.4,0.4,0.7,1.2,0.7,2c0,2.6-2,4-4.5,4c-0.5,0-1.1-0.1-1.6-0.3
			c-0.4,0.3-0.6,0.6-0.6,1.1c0,0.7,0.5,1.1,1.9,1.1h2.1c2.8,0,4.3,0.9,4.3,2.9c0,2.3-2.4,4.2-6.3,4.2
			C165.4,224.4,163.3,223.4,163.3,221.4z M171.8,220.7c0-0.9-0.7-1.2-2.1-1.2h-1.6c-0.6,0-1.1,0-1.6-0.2c-0.6,0.5-0.9,1-0.9,1.6
			c0,1.1,1.2,1.7,3,1.7C170.5,222.6,171.8,221.7,171.8,220.7z M170.4,211.4c0-1.5-0.9-2.3-2-2.3s-2,0.8-2,2.3c0,1.5,0.9,2.4,2,2.4
			S170.4,212.9,170.4,211.4z"/>
		<path d="M181.8,215.2v-5.6h-1.7v-2.1l1.8-0.1l0.3-3.2h2.3v3.2h3v2.2h-3v5.6c0,1.4,0.5,2.1,1.7,2.1c0.4,0,0.9-0.1,1.2-0.3l0.5,2
			c-0.6,0.2-1.5,0.4-2.4,0.4C182.8,219.5,181.8,217.8,181.8,215.2z"/>
		<path d="M190,202.3h2.8v4.4l-0.1,2.3c1-0.9,2.2-1.8,3.8-1.8c2.5,0,3.6,1.7,3.6,4.7v7.4h-2.8v-7c0-1.9-0.6-2.7-1.8-2.7
			c-1,0-1.7,0.5-2.7,1.5v8.2H190V202.3z"/>
		<path d="M202.6,213.3c0-3.8,2.7-6.2,5.4-6.2c3.2,0,4.9,2.3,4.9,5.6c0,0.5-0.1,1.1-0.1,1.3h-7.5c0.2,2.1,1.6,3.3,3.5,3.3
			c1,0,1.9-0.3,2.7-0.9l0.9,1.7c-1.1,0.8-2.5,1.3-4,1.3C205.2,219.5,202.6,217.2,202.6,213.3z M210.5,212.2c0-1.8-0.8-2.9-2.4-2.9
			c-1.4,0-2.6,1-2.8,2.9H210.5z"/>
		<path d="M78.9,241.1v-8.8h2.8v9c0,3.4,1.3,4.5,3.2,4.5c1.9,0,3.2-1.1,3.2-4.5v-9h2.7v8.8c0,5.2-2.3,7.2-5.9,7.2
			S78.9,246.3,78.9,241.1z"/>
		<path d="M94.5,236.2h2.3l0.2,1.6H97c1.1-1,2.3-1.9,3.9-1.9c2.5,0,3.6,1.7,3.6,4.7v7.4h-2.8v-7c0-1.9-0.6-2.7-1.8-2.7
			c-1,0-1.7,0.5-2.7,1.5v8.2h-2.8V236.2z"/>
		<path d="M107.1,242.1c0-3.9,2.8-6.2,5.9-6.2c1.5,0,2.6,0.6,3.4,1.3l-1.3,1.8c-0.6-0.5-1.2-0.9-2-0.9c-1.9,0-3.2,1.6-3.2,3.9
			c0,2.4,1.3,3.9,3.1,3.9c0.9,0,1.8-0.5,2.4-1l1.1,1.8c-1.1,1-2.5,1.5-3.8,1.5C109.6,248.3,107.1,246,107.1,242.1z"/>
		<path d="M118.2,242.1c0-3.8,2.7-6.2,5.4-6.2c3.2,0,4.9,2.3,4.9,5.6c0,0.5-0.1,1.1-0.1,1.3h-7.5c0.2,2.1,1.6,3.3,3.5,3.3
			c1,0,1.9-0.3,2.7-0.9l0.9,1.7c-1.1,0.8-2.5,1.3-4,1.3C120.8,248.3,118.2,246,118.2,242.1z M126.1,241c0-1.8-0.8-2.9-2.4-2.9
			c-1.4,0-2.6,1-2.8,2.9H126.1z"/>
		<path d="M131.1,236.2h2.3l0.2,2.1h0.1c0.8-1.5,2.1-2.4,3.4-2.4c0.6,0,1,0.1,1.3,0.2l-0.5,2.4c-0.4-0.1-0.7-0.2-1.2-0.2
			c-0.9,0-2.1,0.6-2.8,2.4v7.2h-2.8V236.2z"/>
		<path d="M140.5,244v-5.6h-1.7v-2.1l1.8-0.1l0.3-3.2h2.3v3.2h3v2.2h-3v5.6c0,1.4,0.5,2.1,1.7,2.1c0.4,0,0.9-0.1,1.2-0.3l0.5,2
			c-0.6,0.2-1.5,0.4-2.4,0.4C141.5,248.3,140.5,246.6,140.5,244z"/>
		<path d="M148.1,244.9c0-2.5,2.1-3.8,6.9-4.4c0-1.3-0.5-2.3-2.1-2.3c-1.2,0-2.3,0.5-3.3,1.2l-1-1.8c1.3-0.8,3-1.5,4.8-1.5
			c2.9,0,4.4,1.8,4.4,5.1v7h-2.3l-0.2-1.3h-0.1c-1.1,0.9-2.3,1.6-3.7,1.6C149.5,248.3,148.1,246.9,148.1,244.9z M155.1,244.9v-2.7
			c-3.2,0.4-4.3,1.2-4.3,2.4c0,1,0.7,1.5,1.7,1.5C153.5,246.1,154.2,245.7,155.1,244.9z"/>
		<path d="M160.8,232.6c0-0.9,0.7-1.6,1.7-1.6s1.7,0.6,1.7,1.6c0,0.9-0.7,1.6-1.7,1.6S160.8,233.5,160.8,232.6z M161.1,236.2h2.8
			V248h-2.8V236.2z"/>
		<path d="M167.4,236.2h2.3l0.2,1.6h0.1c1.1-1,2.3-1.9,3.9-1.9c2.5,0,3.6,1.7,3.6,4.7v7.4h-2.8v-7c0-1.9-0.6-2.7-1.8-2.7
			c-1,0-1.7,0.5-2.7,1.5v8.2h-2.8V236.2z"/>
		<path d="M181.3,244v-5.6h-1.7v-2.1l1.8-0.1l0.3-3.2h2.3v3.2h3v2.2h-3v5.6c0,1.4,0.5,2.1,1.7,2.1c0.4,0,0.9-0.1,1.2-0.3l0.5,2
			c-0.6,0.2-1.5,0.4-2.4,0.4C182.3,248.3,181.3,246.6,181.3,244z"/>
		<path d="M188.8,252.6l0.5-2.1c0.2,0.1,0.6,0.2,0.8,0.2c1.2,0,2-0.8,2.4-2l0.2-0.7l-4.6-11.6h2.8l2,5.8c0.4,1,0.7,2.2,1,3.3h0.1
			c0.3-1.1,0.6-2.3,0.9-3.3l1.8-5.8h2.7l-4.3,12.3c-1,2.7-2.2,4.3-4.8,4.3C189.6,252.9,189.2,252.8,188.8,252.6z"/>
	</g>
</g>
<g>
	<text transform="matrix(1 0 0 1 157.7286 117.4716)" class="st7 st8">?</text>
	<path class="st9" d="M177,64.7l-6,6c9.3,9,15,21.6,15,35.5c0,27.3-22.2,49.5-49.5,49.5c-14,0-26.7-5.8-35.7-15.2l-6,6
		c10.6,10.9,25.3,17.7,41.7,17.7c32,0,58-26,58-58C194.5,90,187.8,75.3,177,64.7z"/>
	<line class="st9" x1="136.5" y1="164.2" x2="136.5" y2="174.2"/>
	<line class="st9" x1="113.3" y1="174.2" x2="158.8" y2="174.2"/>
	<path class="st9" d="M185.9,106.4c0,27.3-22.2,49.5-49.5,49.5c-25.1,0-43.6-20.2-48.3-38.4c-1.3-5-1.3-9.1-1.2-11.1
		c0.8-23.7,23.3-49.5,49.5-49.5c13,0,22.7,5.3,25.7,7.2C176.2,72.8,185.9,89.1,185.9,106.4z"/>
	<path class="st9" d="M159.2,62.2c-2.6,1.3-5.8,3.5-6.7,7c-1.2,4.7,2.8,7.2,2.7,13c-0.1,5-3.4,10.4-8.3,13
		c-6.1,3.2-14.9,2.1-17.7-2.3c-2.7-4.2,2.3-7.9,0.3-16.7c-0.5-2.1-1.9-8.4-7.3-11.3c-4.6-2.5-7.4-1.7-8.8-1.2"/>
	<path class="st9" d="M87.2,112.9c0.1-3.5,1.9-6.5,4.7-7.7c2.4-1,5.8-0.7,7,1c0.7,1,0.1,1.9,1,3.7c0.2,0.3,1.1,2.3,2.7,3
		c2.5,1.1,4.5-2,9-3c0.8-0.2,6.1-1.2,9.3,1.7c3.6,3.2,3.7,10.2,0.7,13.7c-1.9,2.2-3.7,1.3-10.3,5c-4,2.2-4.8,3.4-5.3,4.3
		c-1.3,2.6-1.4,6.7,0.7,8.3c2.7,2.2,6.9-1.7,11,0c3,1.2,4.8,4.9,5.7,10.3"/>
	<path class="st9" d="M158.3,121.4c-6.4-2.5-12.6,0.1-14.7,1c-2.6,1.1-12.3,5.2-12.7,13c-0.2,3.8,1.9,8.3,5.3,9.7
		c5,2,11.6-3,14.7-7.3c2.7-3.7,2.1-6.1,5-8c4-2.7,8.7-0.5,9.3-2C165.8,126.3,162.3,122.9,158.3,121.4z"/>
</g>
</svg>
