<?xml version="1.0" encoding="utf-8"?>
<!-- Generator: Adobe Illustrator 22.1.0, SVG Export Plug-In . SVG Version: 6.00 Build 0)  -->
<svg version="1.1" id="Layer_1" xmlns="http://www.w3.org/2000/svg" xmlns:xlink="http://www.w3.org/1999/xlink" x="0px" y="0px"
	 viewBox="0 0 713 292" style="enable-background:new 0 0 713 292;" xml:space="preserve">
<style type="text/css">
	.st0{fill:#F4F7F5;}
	.st1{fill:none;stroke:#5A5757;stroke-width:2;stroke-miterlimit:10;}
	.st2{fill:none;stroke:#62929E;stroke-width:4;stroke-linecap:round;stroke-miterlimit:10;}
	.st3{fill:#777576;}
	.st4{fill:none;stroke:#767676;stroke-width:3;stroke-linecap:round;stroke-miterlimit:10;}
	.st5{fill:#EE842F;}
	.st6{font-family:'PTSans-Caption';}
	.st7{font-size:25.5462px;}
</style>
<rect x="-0.3" y="0.8" class="st0" width="713" height="292"/>
<g>
	<line class="st1" x1="45.3" y1="140.2" x2="660" y2="140.2"/>
	<polyline class="st2" points="54.7,175.3 118.7,63 195.2,248.2 262.2,110.8 299.7,199.3 368.2,40.3 435.2,218.2 470,154.7 
		492.7,193.3 531.2,99.5 594.7,253.3 667.2,59.2 	"/>
	<g>
		<circle class="st3" cx="64" cy="99.5" r="4.3"/>
		<polyline class="st4" points="78.2,95.2 76.2,103.5 64.8,106.3 60.1,125.1 69.1,118.7 79.5,126.5 		"/>
		<polyline class="st4" points="58.1,117 55.2,110.6 64.8,106.3 		"/>
		<polyline class="st4" points="54.4,137.3 61.4,134.4 58.8,127.6 		"/>
	</g>
	<text transform="matrix(1 0 0 1 415.1641 68.0521)" class="st5 st6 st7">My MDEF Jouney </text>
</g>
<path class="st0" d="M291.7-8.3"/>
</svg>
